.............
----------------------------------------------------------------------
Ran 13 tests in 0.145s

OK
Name             Stmts   Miss Branch BrPart  Cover   Missing
------------------------------------------------------------
Collatz.py          25      0      8      0   100%
TestCollatz.py      60      0      0      0   100%
------------------------------------------------------------
TOTAL               85      0      8      0   100%
